{
    "keyword_list": {
        "a": [
            {
                "keyword": "attached",
                "number": 3
            },
            {
                "keyword": "atune",
                "number": 22
            },
            {
                "keyword": "Arlon Bader",
                "number": 4
            }
        ],
        "b": [
            {
                "keyword": "bass",
                "number": 2
            },
            {
                "keyword": "body",
                "number": 25
            },
            {
                "keyword": "bodies",
                "number": 4
            },
            {
                "keyword": "blabla",
                "number": 3
            },
            {
                "keyword": "Brigitte Sunlight",
                "number": 2
            },
            {
                "keyword": "burn out",
                "number": 5
            },
            {
                "keyword": "body",
                "number": 3
            },
            {
                "keyword": "base",
                "number": 1
            },
            {
                "keyword": "bio",
                "number": 2
            },
            {
                "keyword": "belgium",
                "number": 1
            }
        ],
        "c": [
            {
                "keyword": "Carole Wittgen",
                "number": 1
            },
            {
                "keyword": "calm",
                "number": 6
            },
            {
                "keyword": "clarinet",
                "number": 2
            },
            {
                "keyword": "count",
                "number": 9
            },
            {
                "keyword": "attached",
                "number": 3
            },
            {
                "keyword": "azerty",
                "number": 1
            }
        ],
        "d": [
            {
                "keyword": "decalogue",
                "number": 1
            },
            {
                "keyword": "delight",
                "number": 6
            },
            {
                "keyword": "danish",
                "number": 7
            },
            {
                "keyword": "attached",
                "number": 3
            },
            {
                "keyword": "azerty",
                "number": 1
            }
        ],
        "e": [
            {
                "keyword": "attached",
                "number": 3
            },
            {
                "keyword": "azerty",
                "number": 1
            }
        ],
        "f": [
            {
                "keyword": "feminism",
                "number": 3
            },
            {
                "keyword": "figure",
                "number": 1
            }
        ]
    },
    "texts": {
        "diary": [
            {
                "path": "Score::Lucia_and_Piero",
                "title": "Troubled Gardens",
                "pub_date": "2019-9-13",
                "gifs": [
                    "../../images/gifs/fable-1.gif",
                    "../../images/gifs/message-1.gif"
                ],
                "authors": [
                    "Sarah Magnan"
                ],
                "types": [
                    "report",
                    "manifesto"
                ]
            },
            {
                "path": "Score::Lucia_and_Piero",
                "title": "Traveling through square liberateurs",
                "pub_date": "2019-10-17",
                "gifs": [
                    "../../images/gifs/archive-1.gif",
                    "../../images/gifs/book-1.gif"
                ],
                "authors": [
                    "Ludi Loiseau"
                ],
                "types": [
                    "notes",
                    "sticky"
                ]
            },
            {
                "path": "Score::Lucia_and_Piero",
                "title": "Three Days a Week",
                "pub_date": "2019-10-19",
                "gifs": [
                    "../../images/gifs/diary-1.gif",
                    "../../images/gifs/tutorial-1.gif"
                ],
                "authors": [
                    "Sina Seiffee"
                ],
                "types": [
                    "draft",
                    "scribble"
                ]
            }
        ],
        "manifesto": [
            {
                "path": "Score::Lucia_and_Piero",
                "title": "Ecole Mondiale Bruocsella",
                "pub_date": "2019-10-11",
                "gifs": [
                    "../../images/gifs/manifesto-1.gif",
                    "../../images/gifs/draft-1.gif"
                ],
                "authors": [
                    "Pierre Rubio"
                ]
            }
        ],
        "report": [
            {
                "path": "Score::Lucia_and_Piero",
                "title": "Troubled Gardens",
                "pub_date": "2019-5-11",
                "gifs": [
                    "../../images/gifs/report-1.gif",
                    "../../images/gifs/score-1.gif"
                ],
                "authors": [
                    "Sarah Magnan"
                ]
            },
            {
                "path": "Score::Lucia_and_Piero",
                "title": "Traveling through square liberateurs",
                "pub_date": "2017-8-21",
                "gifs": [
                    "../../images/gifs/report-1.gif",
                    "../../images/gifs/scribble-1.gif"
                ],
                "authors": [
                    "Ludi Loiseau"
                ]
            },
            {
                "path": "Score::Lucia_and_Piero",
                "title": "Three Days a Week",
                "pub_date": "2018-4-17",
                "gifs": [
                    "../../images/gifs/report-1.gif",
                    "../../images/gifs/draft-1.gif"
                ],
                "authors": [
                    "Sina Seiffee"
                ]
            }
        ],
        "scribble": [
            {
                "path": "Score::Lucia_and_Piero",
                "title": "Ecole Mondiale Bruocsella",
                "pub_date": "2018-7-5",
                "gifs": [
                    "../../images/gifs/scribble-1.gif",
                    "../../images/gifs/book-1.gif"
                ],
                "authors": [
                    "Pierre Rubio"
                ]
            }
        ],
        "sticky": [
            {
                "path": "Score::Lucia_and_Piero",
                "title": "Troubled Gardens",
                "pub_date": "2019-11-12",
                "gifs": [
                    "../../images/gifs/sticky-1.gif",
                    "../../images/gifs/collection-1.gif"
                ],
                "authors": [
                    "Sarah Magnan"
                ]
            },
            {
                "path": "Score::Lucia_and_Piero",
                "title": "Traveling through square liberateurs",
                "pub_date": "2018-3-5",
                "gifs": [
                    "../../images/gifs/sticky-1.gif",
                    "../../images/gifs/book-1.gif"
                ],
                "authors": [
                    "Ludi Loiseau"
                ]
            },
            {
                "path": "Score::Lucia_and_Piero",
                "title": "Three Days a Week",
                "pub_date": "2018-7-23",
                "gifs": [
                    "../../images/gifs/sticky-1.gif",
                    "../../images/gifs/poetry-1.gif"
                ],
                "authors": [
                    "Sina Seiffee"
                ]
            }
        ],
        "draft": [
            {
                "path": "Score::Lucia_and_Piero",
                "title": "Ecole Mondiale Bruocsella",
                "pub_date": "2018-6-7",
                "gifs": [
                    "../../images/gifs/draft-1.gif",
                    "../../images/gifs/meeting-2.gif"
                ],
                "authors": [
                    "Pierre Rubio"
                ]
            }
        ]
    }
}
