<?xml version="1.0" encoding="UTF-8"?>
<glyph name="circumflex" format="1">
  <advance width="660"/>
  <unicode hex="02C6"/>
  <outline>
    <contour>
      <point x="560.0" y="1016.0" type="line"/>
      <point x="620.0" y="1016.0" type="line"/>
      <point x="380.0" y="1355.0" type="line"/>
      <point x="280.0" y="1355.0" type="line"/>
      <point x="40.0" y="1016.0" type="line"/>
      <point x="100.0" y="1016.0" type="line"/>
      <point x="282" y="1222" type="line"/>
      <point x="302" y="1222" type="line"/>
    </contour>
    <contour>
      <point x="330.0" y="959" type="move" name="_top"/>
    </contour>
  </outline>
</glyph>
