<?xml version="1.0" encoding="UTF-8"?>
<glyph name="comma" format="1">
  <advance width="508"/>
  <unicode hex="002C"/>
  <outline>
    <contour>
      <point x="319" y="37" type="curve"/>
      <point x="319" y="208" type="line"/>
      <point x="101" y="208" type="line"/>
      <point x="101" y="0" type="line"/>
      <point x="210" y="0" type="line"/>
      <point x="225" y="-20" type="line"/>
      <point x="225" y="-104"/>
      <point x="188" y="-176"/>
      <point x="91" y="-254" type="curve"/>
      <point x="122" y="-306" type="line"/>
      <point x="246" y="-216"/>
      <point x="319" y="-100"/>
    </contour>
  </outline>
  <lib>
    <dict>
      <key>com.typemytype.robofont.layerData</key>
      <dict>
        <key>backgroud</key>
        <dict>
          <key>anchors</key>
          <array>
          </array>
          <key>components</key>
          <array>
          </array>
          <key>contours</key>
          <array>
            <dict>
              <key>points</key>
              <array>
                <dict>
                  <key>segmentType</key>
                  <string>line</string>
                  <key>smooth</key>
                  <false/>
                  <key>x</key>
                  <integer>100</integer>
                  <key>y</key>
                  <integer>0</integer>
                </dict>
                <dict>
                  <key>segmentType</key>
                  <string>line</string>
                  <key>smooth</key>
                  <false/>
                  <key>x</key>
                  <integer>298</integer>
                  <key>y</key>
                  <integer>0</integer>
                </dict>
                <dict>
                  <key>segmentType</key>
                  <string>line</string>
                  <key>smooth</key>
                  <false/>
                  <key>x</key>
                  <integer>308</integer>
                  <key>y</key>
                  <integer>40</integer>
                </dict>
                <dict>
                  <key>segmentType</key>
                  <string>line</string>
                  <key>smooth</key>
                  <false/>
                  <key>x</key>
                  <integer>308</integer>
                  <key>y</key>
                  <integer>188</integer>
                </dict>
                <dict>
                  <key>segmentType</key>
                  <string>line</string>
                  <key>smooth</key>
                  <false/>
                  <key>x</key>
                  <integer>308</integer>
                  <key>y</key>
                  <integer>208</integer>
                </dict>
                <dict>
                  <key>segmentType</key>
                  <string>line</string>
                  <key>smooth</key>
                  <false/>
                  <key>x</key>
                  <integer>100</integer>
                  <key>y</key>
                  <integer>208</integer>
                </dict>
                <dict>
                  <key>segmentType</key>
                  <string>line</string>
                  <key>smooth</key>
                  <false/>
                  <key>x</key>
                  <integer>100</integer>
                  <key>y</key>
                  <integer>188</integer>
                </dict>
                <dict>
                  <key>segmentType</key>
                  <string>line</string>
                  <key>smooth</key>
                  <false/>
                  <key>x</key>
                  <integer>100</integer>
                  <key>y</key>
                  <integer>20</integer>
                </dict>
              </array>
            </dict>
            <dict>
              <key>points</key>
              <array>
                <dict>
                  <key>segmentType</key>
                  <string>curve</string>
                  <key>smooth</key>
                  <false/>
                  <key>x</key>
                  <integer>308</integer>
                  <key>y</key>
                  <integer>40</integer>
                </dict>
                <dict>
                  <key>segmentType</key>
                  <string>line</string>
                  <key>smooth</key>
                  <false/>
                  <key>x</key>
                  <integer>208</integer>
                  <key>y</key>
                  <integer>0</integer>
                </dict>
                <dict>
                  <key>segmentType</key>
                  <string>line</string>
                  <key>smooth</key>
                  <false/>
                  <key>x</key>
                  <integer>228</integer>
                  <key>y</key>
                  <integer>-20</integer>
                </dict>
                <dict>
                  <key>smooth</key>
                  <false/>
                  <key>x</key>
                  <integer>228</integer>
                  <key>y</key>
                  <integer>-102</integer>
                </dict>
                <dict>
                  <key>smooth</key>
                  <false/>
                  <key>x</key>
                  <integer>174</integer>
                  <key>y</key>
                  <integer>-182</integer>
                </dict>
                <dict>
                  <key>segmentType</key>
                  <string>curve</string>
                  <key>smooth</key>
                  <false/>
                  <key>x</key>
                  <integer>100</integer>
                  <key>y</key>
                  <integer>-235</integer>
                </dict>
                <dict>
                  <key>segmentType</key>
                  <string>line</string>
                  <key>smooth</key>
                  <false/>
                  <key>x</key>
                  <integer>100</integer>
                  <key>y</key>
                  <integer>-305</integer>
                </dict>
                <dict>
                  <key>smooth</key>
                  <false/>
                  <key>x</key>
                  <integer>234</integer>
                  <key>y</key>
                  <integer>-234</integer>
                </dict>
                <dict>
                  <key>smooth</key>
                  <false/>
                  <key>x</key>
                  <integer>308</integer>
                  <key>y</key>
                  <integer>-118</integer>
                </dict>
              </array>
            </dict>
          </array>
          <key>lib</key>
          <dict>
            <key>com.typemytype.robofont.layerData</key>
            <dict>
              <key>backgroud</key>
              <dict>
                <key>anchors</key>
                <array>
                </array>
                <key>components</key>
                <array>
                </array>
                <key>contours</key>
                <array>
                </array>
                <key>lib</key>
                <dict>
                </dict>
                <key>name</key>
                <string>period</string>
                <key>unicodes</key>
                <array>
                </array>
                <key>width</key>
                <integer>508</integer>
              </dict>
            </dict>
          </dict>
          <key>name</key>
          <string>comma</string>
          <key>unicodes</key>
          <array>
          </array>
          <key>width</key>
          <integer>508</integer>
        </dict>
      </dict>
    </dict>
  </lib>
</glyph>
