<?xml version="1.0" encoding="UTF-8"?>
<glyph name="Egrave" format="1">
  <advance width="1310"/>
  <unicode hex="00C8"/>
  <outline>
    <component base="E"/>
    <component base="grave" xOffset="385.0" yOffset="436"/>
  </outline>
  <lib>
    <dict>
      <key>com.typemytype.robofont.guides</key>
      <array>
        <dict>
          <key>angle</key>
          <integer>0</integer>
          <key>isGlobal</key>
          <false/>
          <key>magnetic</key>
          <integer>5</integer>
          <key>name</key>
          <string></string>
          <key>x</key>
          <integer>399</integer>
          <key>y</key>
          <integer>1840</integer>
        </dict>
      </array>
    </dict>
  </lib>
</glyph>
