<?xml version="1.0" encoding="UTF-8"?>
<glyph name="emdash.cap" format="1">
  <advance width="1561"/>
  <outline>
    <contour>
      <point x="80" y="643" type="line"/>
      <point x="1481" y="643" type="line"/>
      <point x="1481" y="713" type="line"/>
      <point x="80" y="713" type="line"/>
    </contour>
  </outline>
</glyph>
