<?xml version="1.0" encoding="UTF-8"?>
<glyph name="exclam" format="1">
  <advance width="408"/>
  <unicode hex="0021"/>
  <outline>
    <contour>
      <point x="242" y="375" type="line"/>
      <point x="242" y="695"/>
      <point x="307" y="939"/>
      <point x="307" y="1375" type="curve"/>
      <point x="307" y="1375"/>
      <point x="102" y="1375"/>
      <point x="102" y="1375" type="curve"/>
      <point x="102" y="939"/>
      <point x="167" y="695"/>
      <point x="167" y="375" type="curve"/>
    </contour>
    <contour>
      <point x="100" y="0" type="line"/>
      <point x="308" y="0" type="line"/>
      <point x="308" y="20" type="line"/>
      <point x="308" y="188" type="line"/>
      <point x="308" y="208" type="line"/>
      <point x="100" y="208" type="line"/>
      <point x="100" y="188" type="line"/>
      <point x="100" y="20" type="line"/>
    </contour>
  </outline>
</glyph>
