<?xml version="1.0" encoding="UTF-8"?>
<glyph name="five" format="1">
  <advance width="938"/>
  <unicode hex="0035"/>
  <outline>
    <contour>
      <point x="422" y="58" type="curve"/>
      <point x="352" y="58"/>
      <point x="306" y="90"/>
      <point x="246" y="148" type="curve" smooth="yes"/>
      <point x="133" y="258" type="line"/>
      <point x="11" y="138" type="line"/>
      <point x="11" y="108" type="line"/>
      <point x="69" y="52"/>
      <point x="152" y="-20"/>
      <point x="350" y="-20" type="curve"/>
      <point x="617" y="-20"/>
      <point x="822" y="174"/>
      <point x="822" y="466" type="curve"/>
      <point x="822" y="848"/>
      <point x="500" y="960"/>
      <point x="257" y="1001" type="curve"/>
      <point x="85" y="827" type="line"/>
      <point x="370" y="800"/>
      <point x="673" y="710"/>
      <point x="673" y="362" type="curve"/>
      <point x="673" y="184"/>
      <point x="555" y="58"/>
    </contour>
    <contour>
      <point x="299" y="1355" type="line"/>
      <point x="65" y="847" type="line"/>
      <point x="85" y="827" type="line"/>
      <point x="257" y="1001" type="line"/>
      <point x="237" y="1021" type="line"/>
      <point x="322" y="1201" type="line"/>
      <point x="878" y="1201" type="line"/>
      <point x="878" y="1355" type="line"/>
    </contour>
  </outline>
</glyph>
