<?xml version="1.0" encoding="UTF-8"?>
<glyph name="Oacute" format="1">
  <advance width="1450"/>
  <unicode hex="00D3"/>
  <outline>
    <component base="O"/>
    <component base="acute" xOffset="440.0" yOffset="436"/>
  </outline>
</glyph>
