<?xml version="1.0" encoding="UTF-8"?>
<glyph name="Ograve" format="1">
  <advance width="1450"/>
  <unicode hex="00D2"/>
  <outline>
    <component base="O"/>
    <component base="grave" xOffset="440.0" yOffset="436"/>
  </outline>
</glyph>
