<?xml version="1.0" encoding="UTF-8"?>
<glyph name="y" format="1">
  <advance width="1037.0"/>
  <unicode hex="0079"/>
  <outline>
    <contour>
      <point x="495" y="-92" type="curve" smooth="yes"/>
      <point x="633" y="245" type="line" smooth="yes"/>
      <point x="687" y="378"/>
      <point x="822" y="671"/>
      <point x="896" y="839" type="curve"/>
      <point x="916" y="859" type="line"/>
      <point x="1037" y="859" type="line"/>
      <point x="1037" y="919" type="line"/>
      <point x="645" y="919" type="line"/>
      <point x="645" y="859" type="line"/>
      <point x="764" y="859" type="line"/>
      <point x="785" y="839" type="line"/>
      <point x="563" y="245" type="line"/>
      <point x="543" y="245" type="line"/>
      <point x="344" y="839" type="line"/>
      <point x="364" y="859" type="line"/>
      <point x="481" y="859" type="line"/>
      <point x="481" y="919" type="line"/>
      <point x="30" y="919" type="line"/>
      <point x="30" y="859" type="line"/>
      <point x="128" y="859" type="line"/>
      <point x="148" y="839" type="line"/>
      <point x="469" y="12" type="line"/>
      <point x="433" y="-70" type="line" smooth="yes"/>
      <point x="354" y="-250"/>
      <point x="336" y="-279"/>
      <point x="176" y="-279" type="curve" smooth="yes"/>
      <point x="95" y="-279" type="line"/>
      <point x="65" y="-420" type="line"/>
      <point x="85" y="-440" type="line"/>
      <point x="129" y="-439" type="line" smooth="yes"/>
      <point x="304" y="-435"/>
      <point x="371" y="-396"/>
    </contour>
    <contour>
      <point x="531" y="959" type="move" name="top"/>
    </contour>
  </outline>
  <lib>
    <dict>
      <key>com.typemytype.robofont.guides</key>
      <array>
        <dict>
          <key>angle</key>
          <real>67.0</real>
          <key>isGlobal</key>
          <false/>
          <key>magnetic</key>
          <integer>5</integer>
          <key>name</key>
          <string></string>
          <key>x</key>
          <integer>747</integer>
          <key>y</key>
          <integer>553</integer>
        </dict>
        <dict>
          <key>angle</key>
          <real>67.0</real>
          <key>isGlobal</key>
          <false/>
          <key>magnetic</key>
          <integer>5</integer>
          <key>name</key>
          <string></string>
          <key>x</key>
          <integer>589</integer>
          <key>y</key>
          <integer>398</integer>
        </dict>
        <dict>
          <key>angle</key>
          <integer>0</integer>
          <key>isGlobal</key>
          <false/>
          <key>magnetic</key>
          <integer>5</integer>
          <key>name</key>
          <string></string>
          <key>showMeasurements</key>
          <integer>1</integer>
          <key>x</key>
          <integer>621</integer>
          <key>y</key>
          <integer>11</integer>
        </dict>
      </array>
      <key>com.typemytype.robofont.layerData</key>
      <dict>
        <key>backgroud</key>
        <dict>
          <key>anchors</key>
          <array>
          </array>
          <key>components</key>
          <array>
          </array>
          <key>contours</key>
          <array>
            <dict>
              <key>points</key>
              <array>
                <dict>
                  <key>segmentType</key>
                  <string>curve</string>
                  <key>smooth</key>
                  <true/>
                  <key>x</key>
                  <real>507.0</real>
                  <key>y</key>
                  <integer>-92</integer>
                </dict>
                <dict>
                  <key>segmentType</key>
                  <string>line</string>
                  <key>smooth</key>
                  <false/>
                  <key>x</key>
                  <real>896.0</real>
                  <key>y</key>
                  <integer>830</integer>
                </dict>
                <dict>
                  <key>segmentType</key>
                  <string>line</string>
                  <key>smooth</key>
                  <false/>
                  <key>x</key>
                  <real>925.0</real>
                  <key>y</key>
                  <integer>859</integer>
                </dict>
                <dict>
                  <key>segmentType</key>
                  <string>line</string>
                  <key>smooth</key>
                  <false/>
                  <key>x</key>
                  <real>1037.0</real>
                  <key>y</key>
                  <integer>859</integer>
                </dict>
                <dict>
                  <key>segmentType</key>
                  <string>line</string>
                  <key>smooth</key>
                  <false/>
                  <key>x</key>
                  <real>1037.0</real>
                  <key>y</key>
                  <integer>919</integer>
                </dict>
                <dict>
                  <key>segmentType</key>
                  <string>line</string>
                  <key>smooth</key>
                  <false/>
                  <key>x</key>
                  <real>645.0</real>
                  <key>y</key>
                  <integer>919</integer>
                </dict>
                <dict>
                  <key>segmentType</key>
                  <string>line</string>
                  <key>smooth</key>
                  <false/>
                  <key>x</key>
                  <real>645.0</real>
                  <key>y</key>
                  <integer>859</integer>
                </dict>
                <dict>
                  <key>segmentType</key>
                  <string>line</string>
                  <key>smooth</key>
                  <false/>
                  <key>x</key>
                  <real>754.0</real>
                  <key>y</key>
                  <integer>859</integer>
                </dict>
                <dict>
                  <key>segmentType</key>
                  <string>line</string>
                  <key>smooth</key>
                  <false/>
                  <key>x</key>
                  <real>785.0</real>
                  <key>y</key>
                  <integer>829</integer>
                </dict>
                <dict>
                  <key>segmentType</key>
                  <string>line</string>
                  <key>smooth</key>
                  <false/>
                  <key>x</key>
                  <real>563.0</real>
                  <key>y</key>
                  <integer>245</integer>
                </dict>
                <dict>
                  <key>segmentType</key>
                  <string>line</string>
                  <key>smooth</key>
                  <false/>
                  <key>x</key>
                  <real>543.0</real>
                  <key>y</key>
                  <integer>245</integer>
                </dict>
                <dict>
                  <key>segmentType</key>
                  <string>line</string>
                  <key>smooth</key>
                  <false/>
                  <key>x</key>
                  <real>344.0</real>
                  <key>y</key>
                  <integer>829</integer>
                </dict>
                <dict>
                  <key>segmentType</key>
                  <string>line</string>
                  <key>smooth</key>
                  <false/>
                  <key>x</key>
                  <real>374.0</real>
                  <key>y</key>
                  <integer>859</integer>
                </dict>
                <dict>
                  <key>segmentType</key>
                  <string>line</string>
                  <key>smooth</key>
                  <false/>
                  <key>x</key>
                  <real>481.0</real>
                  <key>y</key>
                  <integer>859</integer>
                </dict>
                <dict>
                  <key>segmentType</key>
                  <string>line</string>
                  <key>smooth</key>
                  <false/>
                  <key>x</key>
                  <real>481.0</real>
                  <key>y</key>
                  <integer>919</integer>
                </dict>
                <dict>
                  <key>segmentType</key>
                  <string>line</string>
                  <key>smooth</key>
                  <false/>
                  <key>x</key>
                  <real>30.0</real>
                  <key>y</key>
                  <integer>919</integer>
                </dict>
                <dict>
                  <key>segmentType</key>
                  <string>line</string>
                  <key>smooth</key>
                  <false/>
                  <key>x</key>
                  <real>30.0</real>
                  <key>y</key>
                  <integer>859</integer>
                </dict>
                <dict>
                  <key>segmentType</key>
                  <string>line</string>
                  <key>smooth</key>
                  <false/>
                  <key>x</key>
                  <real>118.0</real>
                  <key>y</key>
                  <integer>859</integer>
                </dict>
                <dict>
                  <key>segmentType</key>
                  <string>line</string>
                  <key>smooth</key>
                  <false/>
                  <key>x</key>
                  <real>148.0</real>
                  <key>y</key>
                  <integer>829</integer>
                </dict>
                <dict>
                  <key>segmentType</key>
                  <string>line</string>
                  <key>smooth</key>
                  <false/>
                  <key>x</key>
                  <real>469.0</real>
                  <key>y</key>
                  <integer>12</integer>
                </dict>
                <dict>
                  <key>segmentType</key>
                  <string>line</string>
                  <key>smooth</key>
                  <true/>
                  <key>x</key>
                  <real>433.0</real>
                  <key>y</key>
                  <integer>-70</integer>
                </dict>
                <dict>
                  <key>smooth</key>
                  <false/>
                  <key>x</key>
                  <real>354.0</real>
                  <key>y</key>
                  <integer>-250</integer>
                </dict>
                <dict>
                  <key>smooth</key>
                  <false/>
                  <key>x</key>
                  <real>336.0</real>
                  <key>y</key>
                  <integer>-304</integer>
                </dict>
                <dict>
                  <key>segmentType</key>
                  <string>curve</string>
                  <key>smooth</key>
                  <true/>
                  <key>x</key>
                  <real>176.0</real>
                  <key>y</key>
                  <integer>-290</integer>
                </dict>
                <dict>
                  <key>segmentType</key>
                  <string>line</string>
                  <key>smooth</key>
                  <false/>
                  <key>x</key>
                  <real>-35.0</real>
                  <key>y</key>
                  <integer>-271</integer>
                </dict>
                <dict>
                  <key>segmentType</key>
                  <string>line</string>
                  <key>smooth</key>
                  <false/>
                  <key>x</key>
                  <real>-45.0</real>
                  <key>y</key>
                  <integer>-420</integer>
                </dict>
                <dict>
                  <key>segmentType</key>
                  <string>line</string>
                  <key>smooth</key>
                  <false/>
                  <key>x</key>
                  <real>-25.0</real>
                  <key>y</key>
                  <integer>-440</integer>
                </dict>
                <dict>
                  <key>segmentType</key>
                  <string>line</string>
                  <key>smooth</key>
                  <true/>
                  <key>x</key>
                  <real>129.0</real>
                  <key>y</key>
                  <integer>-440</integer>
                </dict>
                <dict>
                  <key>smooth</key>
                  <false/>
                  <key>x</key>
                  <real>304.0</real>
                  <key>y</key>
                  <integer>-440</integer>
                </dict>
                <dict>
                  <key>smooth</key>
                  <false/>
                  <key>x</key>
                  <real>401.0</real>
                  <key>y</key>
                  <integer>-343</integer>
                </dict>
              </array>
            </dict>
          </array>
          <key>lib</key>
          <dict>
          </dict>
          <key>name</key>
          <string>y</string>
          <key>unicodes</key>
          <array>
          </array>
          <key>width</key>
          <real>1037.0</real>
        </dict>
      </dict>
    </dict>
  </lib>
</glyph>
