{
    "keyword_list": {
      "a": [
        {
          "keyword": "attached",
          "number": 3
        },
        {
          "keyword": "atune",
          "number": 22
        },
        {
          "keyword": "Arlon Bader",
          "number": 4
        }
      ],
      "b": [
        {
          "keyword": "bass",
          "number": 2
        },
        {
          "keyword": "body",
          "number": 25
        },
        {
          "keyword": "bodies",
          "number": 4
        },
        {
          "keyword": "blabla",
          "number": 3
        },
        {
          "keyword": "Brigitte Sunlight",
          "number": 2
        },
        {
          "keyword": "burn out",
          "number": 5
        }
      ],
      "c": [
        {
          "keyword": "Carole Wittgen",
          "number": 1
        },
        {
          "keyword": "calm",
          "number": 6
        },
        {
          "keyword": "clarinet",
          "number": 2
        },
        {
          "keyword": "count",
          "number": 9
        }
      ],
      "d": [
        {
          "keyword": "decalogue",
          "number": 1
        },
        {
          "keyword": "delight",
          "number": 6
        },
        {
          "keyword": "danish",
          "number": 7
        }
      ]
    }
}
