<?xml version="1.0" encoding="UTF-8"?>
<glyph name="D" format="1">
  <advance width="1552"/>
  <unicode hex="0044"/>
  <outline>
    <contour>
      <point x="724" y="1355" type="line"/>
      <point x="814" y="1355" type="line"/>
      <point x="1250" y="1355"/>
      <point x="1552" y="1200"/>
      <point x="1552" y="836" type="curve"/>
      <point x="1552" y="334"/>
      <point x="1065" y="0"/>
      <point x="525" y="0" type="curve"/>
      <point x="335" y="0" type="line"/>
      <point x="369" y="120" type="line"/>
      <point x="369" y="100" type="line"/>
      <point x="535" y="100" type="line" smooth="yes"/>
      <point x="1005" y="100"/>
      <point x="1317" y="414"/>
      <point x="1317" y="819" type="curve"/>
      <point x="1317" y="1128"/>
      <point x="1157" y="1255"/>
      <point x="845" y="1255" type="curve" smooth="yes"/>
      <point x="695" y="1255" type="line"/>
    </contour>
    <contour>
      <point x="335" y="0" type="line"/>
      <point x="-40" y="0" type="line"/>
      <point x="-20" y="70" type="line"/>
      <point x="131" y="70" type="line"/>
      <point x="161" y="90" type="line"/>
      <point x="498" y="1265" type="line"/>
      <point x="478" y="1285" type="line"/>
      <point x="329" y="1285" type="line"/>
      <point x="349" y="1355" type="line"/>
      <point x="724" y="1355" type="line"/>
    </contour>
  </outline>
</glyph>
