<?xml version="1.0" encoding="UTF-8"?>
<glyph name="five" format="1">
  <advance width="925"/>
  <unicode hex="0035"/>
  <outline>
    <contour>
      <point x="277" y="58" type="curve"/>
      <point x="207" y="58"/>
      <point x="165" y="86"/>
      <point x="116" y="140" type="curve" smooth="yes"/>
      <point x="25" y="240" type="line"/>
      <point x="-111" y="138" type="line"/>
      <point x="-120" y="108" type="line"/>
      <point x="-80" y="60"/>
      <point x="-6" y="-20"/>
      <point x="182" y="-20" type="curve"/>
      <point x="482" y="-20"/>
      <point x="817" y="201"/>
      <point x="817" y="560" type="curve"/>
      <point x="817" y="880"/>
      <point x="585" y="966"/>
      <point x="388" y="1001" type="curve"/>
      <point x="166" y="827" type="line"/>
      <point x="384" y="828"/>
      <point x="636" y="734"/>
      <point x="636" y="448" type="curve"/>
      <point x="636" y="144"/>
      <point x="407" y="58"/>
    </contour>
    <contour>
      <point x="526" y="1355" type="line"/>
      <point x="146" y="847" type="line"/>
      <point x="166" y="827" type="line"/>
      <point x="388" y="1001" type="line"/>
      <point x="368" y="1021" type="line"/>
      <point x="504" y="1201" type="line"/>
      <point x="1065" y="1201" type="line"/>
      <point x="1105" y="1355" type="line"/>
    </contour>
  </outline>
</glyph>
