<?xml version="1.0" encoding="UTF-8"?>
<glyph name="j" format="1">
  <advance width="494"/>
  <unicode hex="006A"/>
  <outline>
    <contour>
      <point x="366" y="1157" type="line"/>
      <point x="564" y="1157" type="line"/>
      <point x="564" y="1355" type="line"/>
      <point x="366" y="1355" type="line"/>
    </contour>
    <contour>
      <point x="14" y="-184" type="line" smooth="yes"/>
      <point x="-3" y="-251"/>
      <point x="-24" y="-299"/>
      <point x="-116" y="-299" type="curve"/>
      <point x="-335" y="-299" type="line"/>
      <point x="-400" y="-440" type="line"/>
      <point x="-385" y="-460" type="line"/>
      <point x="-241" y="-447" type="line" smooth="yes"/>
      <point x="-1" y="-425"/>
      <point x="159" y="-177"/>
      <point x="230" y="68" type="curve"/>
      <point x="410" y="662" type="line" smooth="yes"/>
      <point x="455" y="811"/>
      <point x="437" y="874"/>
      <point x="382" y="919" type="curve"/>
      <point x="276" y="919" type="line"/>
      <point x="218" y="875"/>
      <point x="136" y="778"/>
      <point x="50" y="643" type="curve"/>
      <point x="120" y="643" type="line"/>
      <point x="204" y="764"/>
      <point x="238" y="798"/>
      <point x="253" y="812" type="curve"/>
      <point x="273" y="792" type="line"/>
    </contour>
  </outline>
  <lib>
    <dict>
      <key>com.typemytype.robofont.guides</key>
      <array>
        <dict>
          <key>angle</key>
          <real>90.0</real>
          <key>isGlobal</key>
          <false/>
          <key>magnetic</key>
          <integer>5</integer>
          <key>name</key>
          <string></string>
          <key>x</key>
          <integer>266</integer>
          <key>y</key>
          <integer>997</integer>
        </dict>
      </array>
    </dict>
  </lib>
</glyph>
