<?xml version="1.0" encoding="UTF-8"?>
<glyph name="Odieresis" format="1">
  <advance width="1518"/>
  <unicode hex="00D6"/>
  <outline>
    <component base="O"/>
    <component base="dieresis" xOffset="760.0" yOffset="436"/>
  </outline>
</glyph>
