<?xml version="1.0" encoding="UTF-8"?>
<glyph name="squareddigiteight" format="1">
  <advance width="1516"/>
  <outline>
    <contour>
      <point x="665" y="302" type="curve"/>
      <point x="617" y="302"/>
      <point x="548" y="321"/>
      <point x="548" y="413" type="curve"/>
      <point x="548" y="517"/>
      <point x="635" y="611"/>
      <point x="715" y="657" type="curve"/>
      <point x="842" y="730" type="line"/>
      <point x="957" y="790"/>
      <point x="1069" y="855"/>
      <point x="1069" y="972" type="curve"/>
      <point x="1069" y="1058"/>
      <point x="994" y="1097"/>
      <point x="902" y="1097" type="curve"/>
      <point x="728" y="1097"/>
      <point x="588" y="982"/>
      <point x="588" y="857" type="curve" smooth="yes"/>
      <point x="588" y="776"/>
      <point x="653" y="719"/>
      <point x="687" y="688" type="curve"/>
      <point x="684" y="676" type="line"/>
      <point x="810" y="750" type="line"/>
      <point x="733" y="809"/>
      <point x="704" y="852"/>
      <point x="704" y="912" type="curve"/>
      <point x="704" y="1008"/>
      <point x="779" y="1055"/>
      <point x="873" y="1055" type="curve"/>
      <point x="947" y="1055"/>
      <point x="981" y="1016"/>
      <point x="981" y="958" type="curve"/>
      <point x="981" y="859"/>
      <point x="887" y="790"/>
      <point x="810" y="750" type="curve"/>
      <point x="684" y="676" type="line"/>
      <point x="568" y="615"/>
      <point x="448" y="538"/>
      <point x="448" y="411" type="curve"/>
      <point x="448" y="312"/>
      <point x="525" y="260"/>
      <point x="636" y="260" type="curve"/>
      <point x="850" y="260"/>
      <point x="962" y="405"/>
      <point x="962" y="516" type="curve"/>
      <point x="962" y="610"/>
      <point x="904" y="663"/>
      <point x="839" y="718" type="curve"/>
      <point x="842" y="730" type="line"/>
      <point x="715" y="657" type="line"/>
      <point x="794" y="587"/>
      <point x="844" y="542"/>
      <point x="844" y="457" type="curve"/>
      <point x="844" y="373"/>
      <point x="772" y="302"/>
    </contour>
    <contour>
      <point x="70" y="0" type="line"/>
      <point x="1446" y="0" type="line"/>
      <point x="1446" y="1355" type="line"/>
      <point x="70" y="1355" type="line"/>
    </contour>
    <contour>
      <point x="140" y="70" type="line"/>
      <point x="140" y="1285" type="line"/>
      <point x="1376" y="1285" type="line"/>
      <point x="1376" y="70" type="line"/>
    </contour>
  </outline>
</glyph>
