<?xml version="1.0" encoding="UTF-8"?>
<glyph name="Yacute" format="1">
  <advance width="1179"/>
  <unicode hex="00DD"/>
  <outline>
    <component base="Y"/>
    <component base="acute" xOffset="620.0" yOffset="436.0"/>
  </outline>
</glyph>
